Fit models for use in examples — cmdstanr_example • cmdstanr
…
#> model {
#>   target += normal_lpdf(alpha | 0, 1);
#>   target += normal_lpdf(beta | 0, 1);
#>   target += bernoulli_logit_glm_lpmf(y | X, alpha, beta);
#> }
#> generated quantities {
#>   vector[N] log_lik;
#>   for (n in 1 : N) {
#>     log_lik[n] = bernoulli_logit_lpmf(y[n] | alpha + X[n] * beta);
#>   }
#> }
fit_logistic_mcmc <- cmdstanr_example("logistic", chains = 2)
fit_logistic_mcmc$summary()

#> # A tibble: 105 × 10
#>    variable      mean  median    sd    mad       q5     q95  rhat ess_bulk
#>    <chr>        <dbl>   <dbl> <dbl>  <dbl>    <dbl>   <dbl> <dbl>    <dbl>
#>  1 lp__       -66.0   -65.6   1.48  1.26   -69.0    -64.3    1.00    1079.
#>  2 alpha        0.380   0.378 0.223 0.221    0.0248   0.754  1.00    1776.
#>  3 beta[1]     -0.661  -0.665 0.251 0.247   -1.08    -0.254  1.00    2485.
#>  4 beta[2]     -0.271  -0.270 0.231 0.226   -0.658    0.103  1.00    2084.
#>  5 beta[3]      0.674   0.666 0.259 0.257    0.262    1.11   1.00    2140.
#>  6 log_lik[1]  -0.516  -0.512 0.101 0.0988  -0.693   -0.359  1.00    1984.
#>  7 log_lik[2]  -0.406  -0.390 0.147 0.142   -0.662   -0.199  1.00    2317.
#>  8 log_lik[3]  -0.500  -0.463 0.223 0.208   -0.908   -0.199  1.00    2242.
#>  9 log_lik[4]  -0.454  -0.431 0.156 0.146   -0.734   -0.233  1.01    2139.
#> 10 log_lik[5]  -1.18   -1.16  0.278 0.273   -1.67    -0.750  1.00    1999.
#> # … with 95 more rows, and 1 more variable: ess_tail <dbl>

fit_logistic_optim <- cmdstanr_example("logistic", method = "optimize")
fit_logistic_optim$summary()

#> # A tibble: 105 × 2
#>    variable   estimate
#>    <chr>         <dbl>
#>  1 lp__        -63.9  
#>  2 alpha         0.365
#>  3 beta[1]      -0.632
#>  4 beta[2]      -0.259
#>  5 beta[3]       0.648
#>  6 log_lik[1]   -0.515
#>  7 log_lik[2]   -0.394
#>  8 log_lik[3]   -0.469
#>  9 log_lik[4]   -0.442
#> 10 log_lik[5]   -1.14 
#> # … with 95 more rows

fit_logistic_vb <- cmdstanr_example("logistic", method = "variational")
fit_logistic_vb$summary()

#> # A tibble: 106 × 7
#>    variable       mean  median    sd   mad       q5      q95
#>    <chr>         <dbl>   <dbl> <dbl> <dbl>    <dbl>    <dbl>
#>  1 lp__        -65.9   -65.6   1.42  1.24  -68.7    -64.2   
#>  2 lp_approx__  -1.99   -1.68  1.40  1.24   -4.76    -0.361 
#>  3 alpha         0.402   0.398 0.234 0.243   0.0390   0.785 
#>  4 beta[1]      -0.598  -0.605 0.233 0.249  -0.971   -0.230 
#>  5 beta[2]      -0.252  -0.256 0.199 0.192  -0.585    0.0849
#>  6 beta[3]       0.779   0.773 0.211 0.215   0.450    1.13  
#>  7 log_lik[1]   -0.520  -0.514 0.104 0.101  -0.711   -0.364 
#>  8 log_lik[2]   -0.370  -0.354 0.122 0.115  -0.604   -0.202 
#>  9 log_lik[3]   -0.470  -0.439 0.198 0.184  -0.841   -0.206 
#> 10 log_lik[4]   -0.440  -0.430 0.132 0.123  -0.699   -0.251 
#> # … with 96 more rows
…
