Compute a summary table of estimates and diagnostics — fit-method-summary • cmdstanr
…
The $print() method returns the fitted model object itself (invisibly),
which is the standard behavior for print methods in R.

    See also

    CmdStanMCMC, CmdStanMLE, CmdStanVB, CmdStanGQ

    Examples

# \dontrun{
fit <- cmdstanr_example("logistic")
fit$summary()

#> # A tibble: 105 × 10
#>    variable      mean  median     sd   mad       q5      q95  rhat ess_bulk
#>    <chr>        <dbl>   <dbl>  <dbl> <dbl>    <dbl>    <dbl> <dbl>    <dbl>
#>  1 lp__       -65.9   -65.6   1.43   1.21  -68.7    -64.3    1.00     1939.
#>  2 alpha        0.382   0.381 0.221  0.221   0.0221   0.750  1.00     4337.
#>  3 beta[1]     -0.664  -0.654 0.250  0.250  -1.09    -0.260  1.00     4508.
#>  4 beta[2]     -0.274  -0.269 0.219  0.216  -0.634    0.0804 1.00     3743.
#>  5 beta[3]      0.679   0.671 0.267  0.260   0.247    1.14   1.00     4066.
#>  6 log_lik[1]  -0.515  -0.509 0.0993 0.100  -0.690   -0.363  1.00     4448.
#>  7 log_lik[2]  -0.404  -0.385 0.146  0.141  -0.667   -0.203  1.00     4695.
#>  8 log_lik[3]  -0.497  -0.465 0.214  0.200  -0.898   -0.208  1.00     4254.
#>  9 log_lik[4]  -0.450  -0.434 0.150  0.141  -0.718   -0.238  1.00     3721.
#> 10 log_lik[5]  -1.18   -1.16  0.284  0.276  -1.69    -0.758  0.999    4506.
#> # … with 95 more rows, and 1 more variable: ess_tail <dbl>
…
#>  variable  mean median   sd  mad    q5  q95 rhat ess_bulk ess_tail
#>   alpha    0.38   0.38 0.22 0.22  0.02 0.75 1.00     4337     3142
#>   beta[2] -0.27  -0.27 0.22 0.22 -0.63 0.08 1.00     3742     2820

# include all variables but only certain summaries
fit$summary(NULL, c("mean", "sd"))

#> # A tibble: 105 × 3
#>    variable      mean     sd
#>    <chr>        <dbl>  <dbl>
#>  1 lp__       -65.9   1.43  
#>  2 alpha        0.382 0.221 
#>  3 beta[1]     -0.664 0.250 
#>  4 beta[2]     -0.274 0.219 
#>  5 beta[3]      0.679 0.267 
#>  6 log_lik[1]  -0.515 0.0993
#>  7 log_lik[2]  -0.404 0.146 
#>  8 log_lik[3]  -0.497 0.214 
#>  9 log_lik[4]  -0.450 0.150 
#> 10 log_lik[5]  -1.18  0.284 
#> # … with 95 more rows
…
